{
  "items": [
    {
      "value": "36,001",
      "freq": 1020
    },
    {
      "value": "36,003",
      "freq": 4325
    },
    {
      "value": "36,005",
      "freq": 1266
    },
    {
      "value": "36,007",
      "freq": 256
    },
    {
      "value": "36,009",
      "freq": 675
    },
    {
      "value": "36,011",
      "freq": 3568
    },
    {
      "value": "36,013",
      "freq": 1256
    },
    {
      "value": "36,015",
      "freq": 899
    },
    {
      "value": "36,017",
      "freq": 2345
    },
    {
      "value": "36,019",
      "freq": 900
    },
    {
      "value": "36,021",
      "freq": 1245
    },
    {
      "value": "36,023",
      "freq": 667
    },
    {
      "value": "36,025",
      "freq": 2543
    },
    {
      "value": "36,027",
      "freq": 1007
    },
    {
      "value": "36,029",
      "freq": 546
    },
    {
      "value": "36,031",
      "freq": 365
    },
    {
      "value": "36,033",
      "freq": 5433
    },
    {
      "value": "36,035",
      "freq": 122
    },
    {
      "value": "36,037",
      "freq": 567
    },
    {
      "value": "36,039",
      "freq": 3442
    },
    {
      "value": "36,041",
      "freq": 1245
    },
    {
      "value": "36,043",
      "freq": 5657
    },
    {
      "value": "36,045",
      "freq": 245
    },
    {
      "value": "36,047",
      "freq": 776
    },
    {
      "value": "36,049",
      "freq": 3346
    },
    {
      "value": "36,051",
      "freq": 3245
    },
    {
      "value": "36,053",
      "freq": 123
    },
    {
      "value": "36,055",
      "freq": 665
    },
    {
      "value": "36,057",
      "freq": 576
    },
    {
      "value": "36,059",
      "freq": 4235
    },
    {
      "value": "36,061",
      "freq": 1237
    },
    {
      "value": "36,063",
      "freq": 2452
    },
    {
      "value": "36,065",
      "freq": 876
    },
    {
      "value": "36,067",
      "freq": 999
    },
    {
      "value": "36,069",
      "freq": 3567
    },
    {
      "value": "36,071",
      "freq": 6432
    },
    {
      "value": "36,073",
      "freq": 124
    },
    {
      "value": "36,075",
      "freq": 678
    },
    {
      "value": "36,077",
      "freq": 6767
    },
    {
      "value": "36,079",
      "freq": 453
    },
    {
      "value": "36,081",
      "freq": 1897
    },
    {
      "value": "36,083",
      "freq": 2356
    },
    {
      "value": "36,085",
      "freq": 435
    },
    {
      "value": "36,087",
      "freq": 564
    },
    {
      "value": "36,089",
      "freq": 1434
    },
    {
      "value": "36,091",
      "freq": 4574
    },
    {
      "value": "36,093",
      "freq": 124
    },
    {
      "value": "36,095",
      "freq": 457
    },
    {
      "value": "36,097",
      "freq": 753
    },
    {
      "value": "36,099",
      "freq": 2436
    },
    {
      "value": "36,101",
      "freq": 231
    },
    {
      "value": "36,103",
      "freq": 654
    },
    {
      "value": "36,105",
      "freq": 1523
    },
    {
      "value": "36,107",
      "freq": 647
    },
    {
      "value": "36,109",
      "freq": 345
    },
    {
      "value": "36,111",
      "freq": 4987
    },
    {
      "value": "36,113",
      "freq": 675
    },
    {
      "value": "36,115",
      "freq": 733
    },
    {
      "value": "36,117",
      "freq": 1456
    },
    {
      "value": "36,119",
      "freq": 5743
    },
    {
      "value": "36,121",
      "freq": 424
    },
    {
      "value": "36,123",
      "freq": 355
    }
  ]
}